# Blender v2.79 (sub 0) OBJ File: 'box1.blend'
# www.blender.org
mtllib box1.mtl
o Cube
v 1.000000 -1.000000 -2.627286
v 1.000000 -1.000000 0.374049
v -1.000000 -1.000000 0.374049
v -1.000000 -1.000000 -2.627286
v 1.000000 2.235626 -2.627286
v 0.999999 1.000000 0.374050
v -1.000000 1.000000 0.374049
v -1.000000 2.235626 -2.627286
v 1.000000 -2.101663 -0.426767
v -1.000000 -2.101663 0.306551
vt 0.756549 0.416133
vt 0.755290 0.090618
vt 0.998792 0.001325
vt 0.997532 0.416133
vt 0.620170 0.534936
vt 0.861782 0.534936
vt 0.861782 0.965009
vt 0.620170 0.965009
vt 0.391423 0.164541
vt 0.752874 0.001325
vt 0.752874 0.431399
vt 0.529455 0.532286
vt 0.369559 0.489735
vt 0.611708 0.698042
vt 0.615551 0.958464
vt 0.374831 0.958464
vt 0.370988 0.698043
vt 0.239683 0.524348
vt 0.013492 0.431188
vt 0.001208 0.001325
vt 0.367143 0.152040
vt 0.367143 0.567290
vt 0.242820 0.569940
vt 0.242820 0.998675
vt 0.001208 0.998675
vt 0.001208 0.569940
vt 0.369559 0.552937
vt 0.617754 0.534936
vn -0.0721 -0.9166 -0.3933
vn -0.0000 0.9247 0.3807
vn 1.0000 0.0000 0.0000
vn -0.0000 -0.0000 1.0000
vn -1.0000 -0.0000 -0.0000
vn 0.0000 0.0000 -1.0000
vn 0.1681 -0.3614 0.9171
usemtl box1mat
s off
f 1/1/1 9/2/1 10/3/1 4/4/1
f 5/5/2 8/6/2 7/7/2 6/8/2
f 1/9/3 5/10/3 6/11/3 2/12/3 9/13/3
f 2/14/4 6/15/4 7/16/4 3/17/4
f 3/18/5 7/19/5 8/20/5 4/21/5 10/22/5
f 5/23/6 1/24/6 4/25/6 8/26/6
f 10/27/7 9/28/7 2/14/7 3/17/7
